[gd_scene load_steps=2 format=3 uid="uid://do6ha3fdij3ii"]

[ext_resource type="Script" path="res://addons/table_container/Table.gd" id="1_dalln"]

[node name="Table" type="Control"]
layout_mode = 3
anchors_preset = 15
anchor_right = 1.0
anchor_bottom = 1.0
offset_left = 558.0
offset_top = 480.0
offset_right = 406.0
offset_bottom = 832.0
grow_horizontal = 2
grow_vertical = 2
rotation = 0.107105
scale = Vector2(1.21156, 1.14518)
pivot_offset = Vector2(2126.06, 807.753)
script = ExtResource("1_dalln")
update = 77

[node name="Header" type="Control" parent="."]
anchors_preset = 0
offset_left = 154.0
offset_top = 19.0
offset_right = 194.0
offset_bottom = 59.0

[node name="Cells" type="Control" parent="."]
anchors_preset = 0
offset_left = 84.0
offset_top = 25.0
offset_right = 124.0
offset_bottom = 65.0
